###  dkt 

```
# A tibble: 62 × 3
   hemi  region                label                  
   <chr> <chr>                 <chr>                  
 1 left  caudal middle frontal lh_caudalmiddlefrontal 
 2 left  fusiform              lh_fusiform            
 3 left  inferior parietal     lh_inferiorparietal    
 4 left  inferior temporal     lh_inferiortemporal    
 5 left  lateral occipital     lh_lateraloccipital    
 6 left  lateral orbitofrontal lh_lateralorbitofrontal
 7 left  middle temporal       lh_middletemporal      
 8 left  pars opercularis      lh_parsopercularis     
 9 left  pars orbitalis        lh_parsorbitalis       
10 left  pars triangularis     lh_parstriangularis    
# ℹ 52 more rows
```
…
