Desikan-Killiany-Tourville Cortical Atlas — dkt • ggsegDKT
…
dkt()
#> $atlas
#> [1] "dkt"
#> 
#> $type
#> [1] "cortical"
#> 
#> $data
#> Simple feature collection with 83 features and 5 fields
#> Geometry type: MULTIPOLYGON
#> Dimension:     XY
#> Bounding box:  xmin: 0 ymin: 0 xmax: 1390.913 ymax: 205.5564
#> CRS:           NA
#> # A tibble: 83 × 6
#>    hemi  side    region                label     roi                    geometry
#>  * <chr> <chr>   <chr>                 <chr>     <chr>            <MULTIPOLYGON>
#>  1 left  lateral caudal middle frontal lh_cauda… 0002  (((110.9037 186.7029, 93…
#>  2 left  lateral fusiform              lh_fusif… 0005  (((256.0259 44.7229, 256…
#>  3 left  lateral inferior parietal     lh_infer… 0006  (((215.7759 163.1805, 21…
#>  4 left  lateral inferior temporal     lh_infer… 0007  (((239.2787 59.31508, 22…
#>  5 left  lateral lateral occipital     lh_later… 0009  (((275.7996 118.0405, 28…
#>  6 left  lateral lateral orbitofrontal lh_later… 0010  (((2.28531 70.05087, 2.1…
#>  7 left  lateral middle temporal       lh_middl… 0013  (((230.5115 105.4085, 22…
#>  8 left  lateral pars opercularis      lh_parso… 0016  (((69.60376 127.8272, 55…
#>  9 left  lateral pars orbitalis        lh_parso… 0017  (((44.75661 64.90361, 41…
#> 10 left  lateral pars triangularis     lh_parst… 0018  (((51.00001 116.0256, 37…
#> # ℹ 73 more rows
…
